Best lineups today:
+-----------+-------------+-------------+---------------+-----------+--------------+
| Commando  | Clutch King | Eco Warrior | Entry Fragger | Sniper    | Total Points |
+-----------+-------------+-------------+---------------+-----------+--------------+
| fnx       | NiKo        | markeloff   | Shara         | chrisJ    |          434 |
| fnx       | NiKo        | markeloff   | s1mple        | chrisJ    |          428 |
| fnx       | NiKo        | Shara       | markeloff     | chrisJ    |          424 |
| fnx       | NiKo        | chrisJ      | markeloff     | WorldEdit |          423 |
| Shara     | NiKo        | markeloff   | s1mple        | chrisJ    |          423 |
| chrisJ    | NiKo        | markeloff   | Shara         | WorldEdit |          422 |
| markeloff | NiKo        | fnx         | Shara         | chrisJ    |          422 |
| markeloff | NiKo        | chrisJ      | Shara         | WorldEdit |          421 |
| fnx       | NiKo        | markeloff   | chrisJ        | WorldEdit |          421 |
| fnx       | Shara       | markeloff   | NiKo          | chrisJ    |          420 |
| fnx       | NiKo        | chrisJ      | Shara         | WorldEdit |          419 |
| fnx       | NiKo        | markeloff   | Shara         | WorldEdit |          419 |
| Shara     | NiKo        | fnx         | markeloff     | chrisJ    |          419 |
| Shara     | NiKo        | chrisJ      | markeloff     | WorldEdit |          418 |
| chrisJ    | NiKo        | markeloff   | s1mple        | WorldEdit |          416 |
| markeloff | NiKo        | fnx         | s1mple        | chrisJ    |          416 |
| markeloff | NiKo        | Shara       | s1mple        | chrisJ    |          416 |
| Shara     | NiKo        | markeloff   | chrisJ        | WorldEdit |          416 |
| markeloff | NiKo        | chrisJ      | s1mple        | WorldEdit |          415 |
| fnx       | NiKo        | Shara       | s1mple        | chrisJ    |          414 |
| fnx       | NiKo        | chrisJ      | s1mple        | WorldEdit |          413 |
| fnx       | NiKo        | markeloff   | s1mple        | WorldEdit |          413 |
| fnx       | chrisJ      | markeloff   | NiKo          | WorldEdit |          413 |
| chrisJ    | NiKo        | fnx         | markeloff     | WorldEdit |          412 |
| chrisJ    | NiKo        | Shara       | markeloff     | WorldEdit |          412 |
| NiKo      | Shara       | markeloff   | s1mple        | chrisJ    |          410 |
| fnx       | NiKo        | chrisJ      | markeloff     | s1mple    |          410 |
| fnx       | markeloff   | Shara       | NiKo          | chrisJ    |          410 |
| chrisJ    | NiKo        | markeloff   | Shara         | s1mple    |          409 |
| NiKo      | chrisJ      | markeloff   | Shara         | WorldEdit |          409 |
| markeloff | NiKo        | fnx         | chrisJ        | WorldEdit |          409 |
| markeloff | NiKo        | Shara       | chrisJ        | WorldEdit |          409 |
| fnx       | NiKo        | Shara       | markeloff     | WorldEdit |          409 |
| fnx       | markeloff   | chrisJ      | NiKo          | WorldEdit |          409 |
| Shara     | NiKo        | fnx         | s1mple        | chrisJ    |          409 |
| chrisJ    | NiKo        | fnx         | Shara         | WorldEdit |          408 |
| chrisJ    | Shara       | markeloff   | NiKo          | WorldEdit |          408 |
| markeloff | NiKo        | chrisJ      | Shara         | s1mple    |          408 |
| markeloff | Shara       | fnx         | NiKo          | chrisJ    |          408 |
| fnx       | NiKo        | markeloff   | chrisJ        | s1mple    |          408 |
| fnx       | markeloff   | NiKo        | Shara         | chrisJ    |          408 |
| fnx       | Shara       | NiKo        | markeloff     | chrisJ    |          408 |
| Shara     | NiKo        | chrisJ      | s1mple        | WorldEdit |          408 |
| Shara     | NiKo        | markeloff   | s1mple        | WorldEdit |          408 |
| Shara     | chrisJ      | markeloff   | NiKo          | WorldEdit |          408 |
| markeloff | NiKo        | fnx         | Shara         | WorldEdit |          407 |
| markeloff | Shara       | chrisJ      | NiKo          | WorldEdit |          407 |
| fnx       | NiKo        | Shara       | chrisJ        | WorldEdit |          407 |
| fnx       | Shara       | markeloff   | s1mple        | chrisJ    |          407 |
| NiKo      | markeloff   | fnx         | Shara         | chrisJ    |          406 |
| NiKo      | Shara       | fnx         | markeloff     | chrisJ    |          406 |
| fnx       | NiKo        | chrisJ      | Shara         | s1mple    |          406 |
| fnx       | NiKo        | markeloff   | Shara         | s1mple    |          406 |
| fnx       | chrisJ      | markeloff   | Shara         | WorldEdit |          406 |
| NiKo      | markeloff   | chrisJ      | Shara         | WorldEdit |          405 |
| NiKo      | Shara       | chrisJ      | markeloff     | WorldEdit |          405 |
| fnx       | Shara       | chrisJ      | NiKo          | WorldEdit |          405 |
| fnx       | Shara       | markeloff   | NiKo          | WorldEdit |          405 |
| Shara     | NiKo        | chrisJ      | markeloff     | s1mple    |          405 |
| Shara     | markeloff   | fnx         | NiKo          | chrisJ    |          405 |
| Shara     | NiKo        | fnx         | markeloff     | WorldEdit |          404 |
| Shara     | markeloff   | chrisJ      | NiKo          | WorldEdit |          404 |
| NiKo      | chrisJ      | markeloff   | s1mple        | WorldEdit |          403 |
| NiKo      | Shara       | markeloff   | chrisJ        | WorldEdit |          403 |
| Shara     | NiKo        | markeloff   | chrisJ        | s1mple    |          403 |
| chrisJ    | NiKo        | fnx         | s1mple        | WorldEdit |          402 |
| chrisJ    | NiKo        | Shara       | s1mple        | WorldEdit |          402 |
| fnx       | markeloff   | chrisJ      | Shara         | WorldEdit |          402 |
| fnx       | markeloff   | NiKo        | s1mple        | chrisJ    |          402 |
| fnx       | Shara       | chrisJ      | markeloff     | WorldEdit |          402 |
| Shara     | NiKo        | fnx         | chrisJ        | WorldEdit |          402 |
| markeloff | NiKo        | fnx         | s1mple        | WorldEdit |          401 |
| markeloff | NiKo        | Shara       | s1mple        | WorldEdit |          401 |
| markeloff | chrisJ      | fnx         | NiKo          | WorldEdit |          401 |
| markeloff | chrisJ      | Shara       | NiKo          | WorldEdit |          401 |
| fnx       | chrisJ      | NiKo        | markeloff     | WorldEdit |          401 |
| fnx       | Hiko        | markeloff   | NiKo          | chrisJ    |          401 |
| NiKo      | markeloff   | fnx         | s1mple        | chrisJ    |          400 |
| NiKo      | markeloff   | Shara       | s1mple        | chrisJ    |          400 |
| markeloff | Shara       | NiKo        | s1mple        | chrisJ    |          400 |
| fnx       | chrisJ      | markeloff   | NiKo          | s1mple    |          400 |
| fnx       | chrisJ      | markeloff   | s1mple        | WorldEdit |          400 |
| fnx       | Shara       | markeloff   | chrisJ        | WorldEdit |          400 |
| chrisJ    | NiKo        | fnx         | markeloff     | s1mple    |          399 |
| chrisJ    | NiKo        | Shara       | markeloff     | s1mple    |          399 |
| NiKo      | chrisJ      | fnx         | markeloff     | WorldEdit |          399 |
| NiKo      | chrisJ      | Shara       | markeloff     | WorldEdit |          399 |
| NiKo      | markeloff   | chrisJ      | s1mple        | WorldEdit |          399 |
| markeloff | chrisJ      | NiKo        | Shara         | WorldEdit |          399 |
| fnx       | NiKo        | Shara       | s1mple        | WorldEdit |          399 |
| fnx       | chrisJ      | Shara       | NiKo          | WorldEdit |          399 |
| chrisJ    | markeloff   | fnx         | NiKo          | WorldEdit |          398 |
| chrisJ    | markeloff   | Shara       | NiKo          | WorldEdit |          398 |
| fnx       | NiKo        | chrisJ      | markeloff     | SmithZz   |          398 |
| fnx       | Shara       | NiKo        | s1mple        | chrisJ    |          398 |
| chrisJ    | NiKo        | markeloff   | Shara         | SmithZz   |          397 |
| NiKo      | Hiko        | markeloff   | Shara         | chrisJ    |          397 |
| fnx       | chrisJ      | NiKo        | Shara         | WorldEdit |          397 |
| fnx       | markeloff   | Shara       | s1mple        | chrisJ    |          397 |
| Shara     | markeloff   | NiKo        | s1mple        | chrisJ    |          397 |
| chrisJ    | markeloff   | NiKo        | Shara         | WorldEdit |          396 |
| chrisJ    | Shara       | NiKo        | markeloff     | WorldEdit |          396 |
| NiKo      | chrisJ      | markeloff   | Shara         | s1mple    |          396 |
| NiKo      | Shara       | fnx         | s1mple        | chrisJ    |          396 |
| markeloff | NiKo        | chrisJ      | Shara         | SmithZz   |          396 |
| markeloff | NiKo        | fnx         | chrisJ        | s1mple    |          396 |
| markeloff | NiKo        | Shara       | chrisJ        | s1mple    |          396 |
| fnx       | NiKo        | markeloff   | chrisJ        | SmithZz   |          396 |
| fnx       | NiKo        | Shara       | markeloff     | s1mple    |          396 |
| fnx       | chrisJ      | Shara       | markeloff     | WorldEdit |          396 |
| fnx       | markeloff   | chrisJ      | NiKo          | s1mple    |          396 |
| fnx       | markeloff   | chrisJ      | s1mple        | WorldEdit |          396 |
| Shara     | chrisJ      | NiKo        | markeloff     | WorldEdit |          396 |
| Shara     | Hiko        | markeloff   | NiKo          | chrisJ    |          396 |
| chrisJ    | NiKo        | fnx         | Shara         | s1mple    |          395 |
| chrisJ    | Shara       | markeloff   | NiKo          | s1mple    |          395 |
| chrisJ    | Shara       | markeloff   | s1mple        | WorldEdit |          395 |
| NiKo      | chrisJ      | fnx         | Shara         | WorldEdit |          395 |
| NiKo      | Shara       | chrisJ      | s1mple        | WorldEdit |          395 |
| NiKo      | Shara       | markeloff   | s1mple        | WorldEdit |          395 |
| markeloff | Shara       | fnx         | s1mple        | chrisJ    |          395 |
| fnx       | markeloff   | NiKo        | chrisJ        | WorldEdit |          395 |
| fnx       | markeloff   | Shara       | NiKo          | WorldEdit |          395 |
| Shara     | chrisJ      | markeloff   | NiKo          | s1mple    |          395 |
| Shara     | chrisJ      | markeloff   | s1mple        | WorldEdit |          395 |
| chrisJ    | Shara       | fnx         | NiKo          | WorldEdit |          394 |
| markeloff | NiKo        | fnx         | Shara         | s1mple    |          394 |
| markeloff | chrisJ      | fnx         | Shara         | WorldEdit |          394 |
| markeloff | Shara       | chrisJ      | NiKo          | s1mple    |          394 |
| markeloff | Shara       | chrisJ      | s1mple        | WorldEdit |          394 |
| fnx       | NiKo        | chrisJ      | Shara         | SmithZz   |          394 |
| fnx       | NiKo        | markeloff   | Shara         | SmithZz   |          394 |
| fnx       | NiKo        | Shara       | chrisJ        | s1mple    |          394 |
| fnx       | Hiko        | markeloff   | Shara         | chrisJ    |          394 |
| Shara     | NiKo        | fnx         | s1mple        | WorldEdit |          394 |
| Shara     | chrisJ      | fnx         | NiKo          | WorldEdit |          394 |
| NiKo      | markeloff   | fnx         | chrisJ        | WorldEdit |          393 |
| NiKo      | markeloff   | Shara       | chrisJ        | WorldEdit |          393 |
| markeloff | chrisJ      | NiKo        | s1mple        | WorldEdit |          393 |
| markeloff | Shara       | NiKo        | chrisJ        | WorldEdit |          393 |
| markeloff | Shara       | fnx         | NiKo          | WorldEdit |          393 |
| fnx       | chrisJ      | markeloff   | Shara         | s1mple    |          393 |
| fnx       | markeloff   | NiKo        | Shara         | WorldEdit |          393 |
| fnx       | Shara       | NiKo        | markeloff     | WorldEdit |          393 |
| Shara     | NiKo        | chrisJ      | markeloff     | SmithZz   |          393 |
| NiKo      | markeloff   | chrisJ      | Shara         | s1mple    |          392 |
| NiKo      | Shara       | chrisJ      | markeloff     | s1mple    |          392 |
| fnx       | Shara       | chrisJ      | NiKo          | s1mple    |          392 |
| fnx       | Shara       | chrisJ      | s1mple        | WorldEdit |          392 |
| fnx       | Shara       | markeloff   | NiKo          | s1mple    |          392 |
| fnx       | Shara       | markeloff   | s1mple        | WorldEdit |          392 |
| Shara     | markeloff   | fnx         | s1mple        | chrisJ    |          392 |
| chrisJ    | NiKo        | markeloff   | s1mple        | SmithZz   |          391 |
| chrisJ    | markeloff   | fnx         | Shara         | WorldEdit |          391 |
| chrisJ    | Shara       | fnx         | markeloff     | WorldEdit |          391 |
| NiKo      | markeloff   | fnx         | Shara         | WorldEdit |          391 |
| NiKo      | Shara       | fnx         | markeloff     | WorldEdit |          391 |
| NiKo      | Hiko        | markeloff   | s1mple        | chrisJ    |          391 |
| fnx       | chrisJ      | NiKo        | s1mple        | WorldEdit |          391 |
| fnx       | Shara       | NiKo        | chrisJ        | WorldEdit |          391 |
| Shara     | NiKo        | markeloff   | chrisJ        | SmithZz   |          391 |
| Shara     | NiKo        | fnx         | markeloff     | s1mple    |          391 |
| Shara     | chrisJ      | fnx         | markeloff     | WorldEdit |          391 |
| Shara     | markeloff   | chrisJ      | NiKo          | s1mple    |          391 |
| Shara     | markeloff   | chrisJ      | s1mple        | WorldEdit |          391 |
| chrisJ    | markeloff   | NiKo        | s1mple        | WorldEdit |          390 |
| NiKo      | Shara       | markeloff   | chrisJ        | s1mple    |          390 |
| markeloff | NiKo        | chrisJ      | s1mple        | SmithZz   |          390 |
| fnx       | markeloff   | Shara       | chrisJ        | WorldEdit |          390 |
| Shara     | markeloff   | NiKo        | chrisJ        | WorldEdit |          390 |
| Shara     | markeloff   | fnx         | NiKo          | WorldEdit |          390 |
| chrisJ    | Hiko        | markeloff   | NiKo          | WorldEdit |          389 |
| NiKo      | chrisJ      | fnx         | s1mple        | WorldEdit |          389 |
| NiKo      | chrisJ      | Shara       | s1mple        | WorldEdit |          389 |
| NiKo      | Shara       | fnx         | chrisJ        | WorldEdit |          389 |
| markeloff | Hiko        | fnx         | NiKo          | chrisJ    |          389 |
| markeloff | Hiko        | Shara       | NiKo          | chrisJ    |          389 |
| fnx       | markeloff   | chrisJ      | Shara         | s1mple    |          389 |
| fnx       | Shara       | chrisJ      | markeloff     | s1mple    |          389 |
| fnx       | Hiko        | NiKo        | markeloff     | chrisJ    |          389 |
| Shara     | NiKo        | fnx         | chrisJ        | s1mple    |          389 |
| markeloff | chrisJ      | fnx         | NiKo          | s1mple    |          388 |
| markeloff | chrisJ      | fnx         | s1mple        | WorldEdit |          388 |
| markeloff | chrisJ      | Shara       | NiKo          | s1mple    |          388 |
| markeloff | chrisJ      | Shara       | s1mple        | WorldEdit |          388 |
| markeloff | Shara       | fnx         | chrisJ        | WorldEdit |          388 |
| markeloff | Hiko        | chrisJ      | NiKo          | WorldEdit |          388 |
| fnx       | NiKo        | chrisJ      | s1mple        | SmithZz   |          388 |
| fnx       | NiKo        | markeloff   | s1mple        | SmithZz   |          388 |
| fnx       | chrisJ      | markeloff   | NiKo          | SmithZz   |          388 |
| fnx       | chrisJ      | NiKo        | markeloff     | s1mple    |          388 |
| fnx       | Hiko        | markeloff   | s1mple        | chrisJ    |          388 |
| chrisJ    | NiKo        | fnx         | markeloff     | SmithZz   |          387 |
| chrisJ    | NiKo        | Shara       | markeloff     | SmithZz   |          387 |
| NiKo      | Hiko        | fnx         | markeloff     | chrisJ    |          387 |
| NiKo      | Hiko        | Shara       | markeloff     | chrisJ    |          387 |
| markeloff | Hiko        | NiKo        | Shara         | chrisJ    |          387 |
| fnx       | markeloff   | NiKo        | s1mple        | WorldEdit |          387 |
| fnx       | Shara       | markeloff   | chrisJ        | s1mple    |          387 |
| fnx       | Hiko        | Shara       | NiKo          | chrisJ    |          387 |
| chrisJ    | Shara       | NiKo        | s1mple        | WorldEdit |          386 |
| NiKo      | chrisJ      | fnx         | markeloff     | s1mple    |          386 |
| NiKo      | chrisJ      | Shara       | markeloff     | s1mple    |          386 |
| NiKo      | Hiko        | chrisJ      | markeloff     | WorldEdit |          386 |
| markeloff | chrisJ      | NiKo        | Shara         | s1mple    |          386 |
| fnx       | chrisJ      | markeloff   | Shara         | NiKo      |          386 |
| fnx       | chrisJ      | Shara       | NiKo          | s1mple    |          386 |
| fnx       | chrisJ      | Shara       | s1mple        | WorldEdit |          386 |
| fnx       | Hiko        | chrisJ      | NiKo          | WorldEdit |          386 |
| fnx       | Hiko        | markeloff   | NiKo          | WorldEdit |          386 |
| Shara     | chrisJ      | NiKo        | s1mple        | WorldEdit |          386 |
| chrisJ    | markeloff   | fnx         | NiKo          | s1mple    |          385 |
| chrisJ    | markeloff   | fnx         | s1mple        | WorldEdit |          385 |
| chrisJ    | markeloff   | Shara       | NiKo          | s1mple    |          385 |
| chrisJ    | markeloff   | Shara       | s1mple        | WorldEdit |          385 |
| NiKo      | markeloff   | fnx         | s1mple        | WorldEdit |          385 |
| NiKo      | markeloff   | Shara       | s1mple        | WorldEdit |          385 |
| markeloff | Shara       | NiKo        | s1mple        | WorldEdit |          385 |
| fnx       | Hiko        | NiKo        | Shara         | chrisJ    |          385 |
| Shara     | markeloff   | fnx         | chrisJ        | WorldEdit |          385 |
| NiKo      | chrisJ      | markeloff   | Shara         | SmithZz   |          384 |
| NiKo      | Hiko        | markeloff   | chrisJ        | WorldEdit |          384 |
| markeloff | NiKo        | fnx         | chrisJ        | SmithZz   |          384 |
| markeloff | NiKo        | Shara       | chrisJ        | SmithZz   |          384 |
| fnx       | NiKo        | Shara       | markeloff     | SmithZz   |          384 |
| fnx       | chrisJ      | NiKo        | Shara         | s1mple    |          384 |
| fnx       | markeloff   | chrisJ      | NiKo          | SmithZz   |          384 |
| fnx       | Hiko        | Shara       | markeloff     | chrisJ    |          384 |
| Shara     | Hiko        | NiKo        | markeloff     | chrisJ    |          384 |
| chrisJ    | NiKo        | fnx         | Shara         | SmithZz   |          383 |
| chrisJ    | markeloff   | NiKo        | Shara         | s1mple    |          383 |
| chrisJ    | Shara       | markeloff   | NiKo          | SmithZz   |          383 |
| chrisJ    | Shara       | NiKo        | markeloff     | s1mple    |          383 |
| NiKo      | Hiko        | fnx         | Shara         | chrisJ    |          383 |
| fnx       | chrisJ      | Shara       | markeloff     | s1mple    |          383 |
| fnx       | Shara       | NiKo        | s1mple        | WorldEdit |          383 |
| fnx       | Hiko        | chrisJ      | markeloff     | WorldEdit |          383 |
| Shara     | NiKo        | chrisJ      | s1mple        | SmithZz   |          383 |
| Shara     | NiKo        | markeloff   | s1mple        | SmithZz   |          383 |
| Shara     | chrisJ      | markeloff   | NiKo          | SmithZz   |          383 |
| Shara     | chrisJ      | NiKo        | markeloff     | s1mple    |          383 |
| Shara     | Hiko        | markeloff   | s1mple        | chrisJ    |          383 |
| chrisJ    | Hiko        | markeloff   | Shara         | WorldEdit |          382 |
| NiKo      | chrisJ      | fnx         | Shara         | s1mple    |          382 |
| NiKo      | Hiko        | chrisJ      | Shara         | WorldEdit |          382 |
| NiKo      | Hiko        | markeloff   | Shara         | WorldEdit |          382 |
| markeloff | NiKo        | fnx         | Shara         | SmithZz   |          382 |
| markeloff | Shara       | chrisJ      | NiKo          | SmithZz   |          382 |
| markeloff | Hiko        | fnx         | Shara         | chrisJ    |          382 |
| fnx       | NiKo        | Shara       | chrisJ        | SmithZz   |          382 |
| fnx       | markeloff   | chrisJ      | Shara         | NiKo      |          382 |
| fnx       | markeloff   | NiKo        | chrisJ        | s1mple    |          382 |
| fnx       | markeloff   | Shara       | NiKo          | s1mple    |          382 |
| fnx       | markeloff   | Shara       | s1mple        | WorldEdit |          382 |
| fnx       | Shara       | chrisJ      | markeloff     | NiKo      |          382 |
| Shara     | markeloff   | NiKo        | s1mple        | WorldEdit |          382 |
| Shara     | Hiko        | fnx         | NiKo          | chrisJ    |          382 |
| chrisJ    | Shara       | fnx         | NiKo          | s1mple    |          381 |
| chrisJ    | Shara       | fnx         | s1mple        | WorldEdit |          381 |
| NiKo      | Shara       | fnx         | s1mple        | WorldEdit |          381 |
| markeloff | chrisJ      | fnx         | Shara         | s1mple    |          381 |
| markeloff | Hiko        | chrisJ      | Shara         | WorldEdit |          381 |
| markeloff | Hiko        | NiKo        | s1mple        | chrisJ    |          381 |
| fnx       | chrisJ      | markeloff   | Shara         | SmithZz   |          381 |
| fnx       | Hiko        | markeloff   | chrisJ        | WorldEdit |          381 |
| Shara     | chrisJ      | fnx         | NiKo          | s1mple    |          381 |
| Shara     | chrisJ      | fnx         | s1mple        | WorldEdit |          381 |
| Shara     | Hiko        | chrisJ      | NiKo          | WorldEdit |          381 |
| Shara     | Hiko        | markeloff   | NiKo          | WorldEdit |          381 |
| NiKo      | markeloff   | chrisJ      | Shara         | SmithZz   |          380 |
| NiKo      | markeloff   | fnx         | chrisJ        | s1mple    |          380 |
| NiKo      | markeloff   | Shara       | chrisJ        | s1mple    |          380 |
| NiKo      | Shara       | chrisJ      | markeloff     | SmithZz   |          380 |
| markeloff | Shara       | NiKo        | chrisJ        | s1mple    |          380 |
| markeloff | Shara       | fnx         | NiKo          | s1mple    |          380 |
| markeloff | Shara       | fnx         | s1mple        | WorldEdit |          380 |
| fnx       | chrisJ      | markeloff   | s1mple        | NiKo      |          380 |
| fnx       | markeloff   | NiKo        | Shara         | s1mple    |          380 |
| fnx       | Shara       | chrisJ      | NiKo          | SmithZz   |          380 |
| fnx       | Shara       | markeloff   | NiKo          | SmithZz   |          380 |
| fnx       | Shara       | markeloff   | chrisJ        | NiKo      |          380 |
| fnx       | Shara       | NiKo        | markeloff     | s1mple    |          380 |
| fnx       | Hiko        | chrisJ      | Shara         | WorldEdit |          379 |
| fnx       | Hiko        | markeloff   | Shara         | WorldEdit |          379 |
| fnx       | Hiko        | NiKo        | s1mple        | chrisJ    |          379 |
| Shara     | NiKo        | fnx         | markeloff     | SmithZz   |          379 |
| Shara     | markeloff   | chrisJ      | NiKo          | SmithZz   |          379 |
| Shara     | Hiko        | fnx         | markeloff     | chrisJ    |          379 |
| chrisJ    | markeloff   | fnx         | Shara         | s1mple    |          378 |
| chrisJ    | Shara       | fnx         | markeloff     | s1mple    |          378 |
| NiKo      | chrisJ      | markeloff   | s1mple        | SmithZz   |          378 |
| NiKo      | markeloff   | fnx         | Shara         | s1mple    |          378 |
| NiKo      | Shara       | markeloff   | chrisJ        | SmithZz   |          378 |
| NiKo      | Shara       | fnx         | markeloff     | s1mple    |          378 |
| fnx       | Shara       | NiKo        | chrisJ        | s1mple    |          378 |
| Shara     | chrisJ      | fnx         | markeloff     | s1mple    |          378 |
| Shara     | Hiko        | chrisJ      | markeloff     | WorldEdit |          378 |
| chrisJ    | NiKo        | fnx         | s1mple        | SmithZz   |          377 |
| chrisJ    | NiKo        | Shara       | s1mple        | SmithZz   |          377 |
| chrisJ    | Hiko        | NiKo        | markeloff     | WorldEdit |          377 |
| NiKo      | Hiko        | fnx         | s1mple        | chrisJ    |          377 |
| NiKo      | Hiko        | Shara       | s1mple        | chrisJ    |          377 |
| fnx       | markeloff   | chrisJ      | Shara         | SmithZz   |          377 |
| fnx       | markeloff   | Shara       | chrisJ        | s1mple    |          377 |
| fnx       | Shara       | chrisJ      | markeloff     | SmithZz   |          377 |
| Shara     | NiKo        | fnx         | chrisJ        | SmithZz   |          377 |
| Shara     | markeloff   | NiKo        | chrisJ        | s1mple    |          377 |
| Shara     | markeloff   | fnx         | NiKo          | s1mple    |          377 |
| Shara     | markeloff   | fnx         | s1mple        | WorldEdit |          377 |
| chrisJ    | Hiko        | markeloff   | NiKo          | s1mple    |          376 |
| chrisJ    | Hiko        | markeloff   | s1mple        | WorldEdit |          376 |
| NiKo      | Shara       | fnx         | chrisJ        | s1mple    |          376 |
| NiKo      | Hiko        | chrisJ      | s1mple        | WorldEdit |          376 |
| NiKo      | Hiko        | markeloff   | s1mple        | WorldEdit |          376 |
| markeloff | NiKo        | fnx         | s1mple        | SmithZz   |          376 |
| markeloff | NiKo        | Shara       | s1mple        | SmithZz   |          376 |
| markeloff | chrisJ      | fnx         | NiKo          | SmithZz   |          376 |
| markeloff | chrisJ      | Shara       | NiKo          | SmithZz   |          376 |
| markeloff | Hiko        | fnx         | s1mple        | chrisJ    |          376 |
| markeloff | Hiko        | Shara       | s1mple        | chrisJ    |          376 |
| fnx       | chrisJ      | NiKo        | markeloff     | SmithZz   |          376 |
| fnx       | chrisJ      | Shara       | markeloff     | NiKo      |          376 |
| fnx       | markeloff   | chrisJ      | s1mple        | NiKo      |          376 |
| Shara     | Hiko        | markeloff   | chrisJ        | WorldEdit |          376 |
| chrisJ    | Shara       | markeloff   | s1mple        | NiKo      |          375 |
| chrisJ    | Hiko        | fnx         | NiKo          | WorldEdit |          375 |
| chrisJ    | Hiko        | Shara       | NiKo          | WorldEdit |          375 |
| markeloff | Shara       | fnx         | chrisJ        | s1mple    |          375 |
| markeloff | Hiko        | chrisJ      | NiKo          | s1mple    |          375 |
| markeloff | Hiko        | chrisJ      | s1mple        | WorldEdit |          375 |
| fnx       | chrisJ      | markeloff   | s1mple        | SmithZz   |          375 |
| fnx       | Shara       | markeloff   | chrisJ        | SmithZz   |          375 |
| Shara     | chrisJ      | markeloff   | s1mple        | NiKo      |          375 |
| NiKo      | chrisJ      | fnx         | markeloff     | SmithZz   |          374 |
| NiKo      | chrisJ      | Shara       | markeloff     | SmithZz   |          374 |
| NiKo      | markeloff   | chrisJ      | s1mple        | SmithZz   |          374 |
| markeloff | chrisJ      | NiKo        | Shara         | SmithZz   |          374 |
| markeloff | chrisJ      | fnx         | Shara         | NiKo      |          374 |
| markeloff | Shara       | chrisJ      | s1mple        | NiKo      |          374 |
| markeloff | Hiko        | NiKo        | chrisJ        | WorldEdit |          374 |
| markeloff | Hiko        | fnx         | NiKo          | WorldEdit |          374 |
| markeloff | Hiko        | Shara       | NiKo          | WorldEdit |          374 |
| fnx       | NiKo        | Shara       | s1mple        | SmithZz   |          374 |
| fnx       | chrisJ      | Shara       | NiKo          | SmithZz   |          374 |
| fnx       | Hiko        | NiKo        | markeloff     | WorldEdit |          374 |
| fnx       | Hiko        | Shara       | s1mple        | chrisJ    |          374 |
| Shara     | Hiko        | NiKo        | s1mple        | chrisJ    |          374 |
| chrisJ    | markeloff   | fnx         | NiKo          | SmithZz   |          373 |
| chrisJ    | markeloff   | Shara       | NiKo          | SmithZz   |          373 |
| chrisJ    | Hiko        | NiKo        | Shara         | WorldEdit |          373 |
| NiKo      | Hiko        | chrisJ      | markeloff     | s1mple    |          373 |
| fnx       | Hiko        | chrisJ      | NiKo          | s1mple    |          373 |
| fnx       | Hiko        | chrisJ      | s1mple        | WorldEdit |          373 |
| fnx       | Hiko        | markeloff   | NiKo          | s1mple    |          373 |
| fnx       | Hiko        | markeloff   | s1mple        | WorldEdit |          373 |
| chrisJ    | Hiko        | fnx         | markeloff     | WorldEdit |          372 |
| chrisJ    | Hiko        | Shara       | markeloff     | WorldEdit |          372 |
| NiKo      | Hiko        | fnx         | markeloff     | WorldEdit |          372 |
| NiKo      | Hiko        | Shara       | markeloff     | WorldEdit |          372 |
| markeloff | Hiko        | NiKo        | Shara         | WorldEdit |          372 |
| fnx       | chrisJ      | NiKo        | Shara         | SmithZz   |          372 |
| fnx       | Shara       | chrisJ      | s1mple        | NiKo      |          372 |
| fnx       | Shara       | markeloff   | s1mple        | NiKo      |          372 |
| fnx       | Hiko        | NiKo        | chrisJ        | WorldEdit |          372 |
| fnx       | Hiko        | Shara       | NiKo          | WorldEdit |          372 |
| Shara     | markeloff   | fnx         | chrisJ        | s1mple    |          372 |
| chrisJ    | markeloff   | NiKo        | Shara         | SmithZz   |          371 |
| chrisJ    | markeloff   | fnx         | Shara         | NiKo      |          371 |
| chrisJ    | Shara       | NiKo        | markeloff     | SmithZz   |          371 |
| chrisJ    | Shara       | fnx         | markeloff     | NiKo      |          371 |
| NiKo      | Hiko        | markeloff   | chrisJ        | s1mple    |          371 |
| fnx       | chrisJ      | Shara       | markeloff     | SmithZz   |          371 |
| fnx       | markeloff   | chrisJ      | s1mple        | SmithZz   |          371 |
| Shara     | chrisJ      | NiKo        | markeloff     | SmithZz   |          371 |
| Shara     | chrisJ      | fnx         | markeloff     | NiKo      |          371 |
| Shara     | markeloff   | chrisJ      | s1mple        | NiKo      |          371 |
| chrisJ    | Shara       | markeloff   | s1mple        | SmithZz   |          370 |
| NiKo      | chrisJ      | fnx         | Shara         | SmithZz   |          370 |
| NiKo      | Shara       | chrisJ      | s1mple        | SmithZz   |          370 |
| NiKo      | Shara       | markeloff   | s1mple        | SmithZz   |          370 |
| NiKo      | Hiko        | fnx         | chrisJ        | WorldEdit |          370 |
| NiKo      | Hiko        | Shara       | chrisJ        | WorldEdit |          370 |
| fnx       | markeloff   | NiKo        | chrisJ        | SmithZz   |          370 |
| fnx       | markeloff   | Shara       | NiKo          | SmithZz   |          370 |
| fnx       | markeloff   | Shara       | chrisJ        | NiKo      |          370 |
| fnx       | Hiko        | chrisJ      | markeloff     | s1mple    |          370 |
| fnx       | Hiko        | NiKo        | Shara         | WorldEdit |          370 |
| Shara     | chrisJ      | markeloff   | s1mple        | SmithZz   |          370 |
| chrisJ    | Shara       | fnx         | NiKo          | SmithZz   |          369 |
| chrisJ    | Hiko        | markeloff   | Shara         | s1mple    |          369 |
| NiKo      | Hiko        | chrisJ      | Shara         | s1mple    |          369 |
| NiKo      | Hiko        | markeloff   | Shara         | s1mple    |          369 |
| markeloff | chrisJ      | fnx         | Shara         | SmithZz   |          369 |
| markeloff | Shara       | chrisJ      | s1mple        | SmithZz   |          369 |
| markeloff | Hiko        | fnx         | chrisJ        | WorldEdit |          369 |
| markeloff | Hiko        | Shara       | chrisJ        | WorldEdit |          369 |
| fnx       | Hiko        | Shara       | markeloff     | WorldEdit |          369 |
| Shara     | NiKo        | fnx         | s1mple        | SmithZz   |          369 |
| Shara     | chrisJ      | fnx         | NiKo          | SmithZz   |          369 |
| Shara     | Hiko        | NiKo        | markeloff     | WorldEdit |          369 |
| Shara     | Hiko        | fnx         | s1mple        | chrisJ    |          369 |
| chrisJ    | Hiko        | fnx         | Shara         | WorldEdit |          368 |
| NiKo      | markeloff   | fnx         | chrisJ        | SmithZz   |          368 |
| NiKo      | markeloff   | Shara       | chrisJ        | SmithZz   |          368 |
| NiKo      | Hiko        | fnx         | Shara         | WorldEdit |          368 |
| markeloff | chrisJ      | NiKo        | s1mple        | SmithZz   |          368 |
| markeloff | chrisJ      | fnx         | s1mple        | NiKo      |          368 |
| markeloff | chrisJ      | Shara       | s1mple        | NiKo      |          368 |
| markeloff | Shara       | NiKo        | chrisJ        | SmithZz   |          368 |
| markeloff | Shara       | fnx         | NiKo          | SmithZz   |          368 |
| markeloff | Shara       | fnx         | chrisJ        | NiKo      |          368 |
| markeloff | Hiko        | chrisJ      | Shara         | s1mple    |          368 |
| fnx       | markeloff   | NiKo        | Shara         | SmithZz   |          368 |
| fnx       | Shara       | NiKo        | markeloff     | SmithZz   |          368 |
| fnx       | Hiko        | markeloff   | chrisJ        | s1mple    |          368 |
| Shara     | Hiko        | chrisJ      | NiKo          | s1mple    |          368 |
| Shara     | Hiko        | chrisJ      | s1mple        | WorldEdit |          368 |
| Shara     | Hiko        | markeloff   | NiKo          | s1mple    |          368 |
| Shara     | Hiko        | markeloff   | s1mple        | WorldEdit |          368 |
| chrisJ    | Hiko        | NiKo        | s1mple        | WorldEdit |          367 |
| markeloff | Hiko        | fnx         | Shara         | WorldEdit |          367 |
| fnx       | Shara       | chrisJ      | s1mple        | SmithZz   |          367 |
| fnx       | Shara       | markeloff   | s1mple        | SmithZz   |          367 |
| fnx       | Hiko        | Shara       | chrisJ        | WorldEdit |          367 |
| Shara     | Hiko        | NiKo        | chrisJ        | WorldEdit |          367 |
| Shara     | Hiko        | fnx         | NiKo          | WorldEdit |          367 |
| chrisJ    | markeloff   | fnx         | Shara         | SmithZz   |          366 |
| chrisJ    | Shara       | fnx         | markeloff     | SmithZz   |          366 |
| NiKo      | markeloff   | fnx         | Shara         | SmithZz   |          366 |
| NiKo      | Shara       | fnx         | markeloff     | SmithZz   |          366 |
| markeloff | Hiko        | NiKo        | s1mple        | WorldEdit |          366 |
| fnx       | chrisJ      | NiKo        | s1mple        | SmithZz   |          366 |
| fnx       | chrisJ      | Shara       | s1mple        | NiKo      |          366 |
| fnx       | Shara       | NiKo        | chrisJ        | SmithZz   |          366 |
| fnx       | Hiko        | chrisJ      | Shara         | s1mple    |          366 |
| fnx       | Hiko        | markeloff   | Shara         | s1mple    |          366 |
| Shara     | chrisJ      | fnx         | markeloff     | SmithZz   |          366 |
| Shara     | markeloff   | chrisJ      | s1mple        | SmithZz   |          366 |
| chrisJ    | markeloff   | NiKo        | s1mple        | SmithZz   |          365 |
| chrisJ    | markeloff   | fnx         | s1mple        | NiKo      |          365 |
| chrisJ    | markeloff   | Shara       | s1mple        | NiKo      |          365 |
| fnx       | markeloff   | Shara       | chrisJ        | SmithZz   |          365 |
| Shara     | markeloff   | NiKo        | chrisJ        | SmithZz   |          365 |
| Shara     | markeloff   | fnx         | NiKo          | SmithZz   |          365 |
| Shara     | markeloff   | fnx         | chrisJ        | NiKo      |          365 |
| Shara     | Hiko        | chrisJ      | markeloff     | s1mple    |          365 |
| chrisJ    | Hiko        | markeloff   | NiKo          | SmithZz   |          364 |
| chrisJ    | Hiko        | NiKo        | markeloff     | s1mple    |          364 |
| NiKo      | chrisJ      | fnx         | s1mple        | SmithZz   |          364 |
| NiKo      | chrisJ      | Shara       | s1mple        | SmithZz   |          364 |
| NiKo      | Shara       | fnx         | chrisJ        | SmithZz   |          364 |
| fnx       | Hiko        | NiKo        | s1mple        | WorldEdit |          364 |
| Shara     | Hiko        | fnx         | markeloff     | WorldEdit |          364 |
| markeloff | chrisJ      | fnx         | s1mple        | SmithZz   |          363 |
| markeloff | chrisJ      | Shara       | s1mple        | SmithZz   |          363 |
| markeloff | Shara       | fnx         | chrisJ        | SmithZz   |          363 |
| markeloff | Hiko        | chrisJ      | NiKo          | SmithZz   |          363 |
| fnx       | Hiko        | chrisJ      | markeloff     | NiKo      |          363 |
| Shara     | Hiko        | markeloff   | chrisJ        | s1mple    |          363 |
| chrisJ    | Hiko        | markeloff   | Shara         | NiKo      |          362 |
| chrisJ    | Hiko        | fnx         | NiKo          | s1mple    |          362 |
| chrisJ    | Hiko        | fnx         | s1mple        | WorldEdit |          362 |
| chrisJ    | Hiko        | Shara       | NiKo          | s1mple    |          362 |
| chrisJ    | Hiko        | Shara       | s1mple        | WorldEdit |          362 |
| NiKo      | Hiko        | fnx         | s1mple        | WorldEdit |          362 |
| NiKo      | Hiko        | Shara       | s1mple        | WorldEdit |          362 |
| fnx       | markeloff   | NiKo        | s1mple        | SmithZz   |          362 |
| fnx       | markeloff   | Shara       | s1mple        | NiKo      |          362 |
| Shara     | Hiko        | fnx         | chrisJ        | WorldEdit |          362 |
| chrisJ    | Shara       | NiKo        | s1mple        | SmithZz   |          361 |
| chrisJ    | Shara       | fnx         | s1mple        | NiKo      |          361 |
| NiKo      | Hiko        | chrisJ      | markeloff     | SmithZz   |          361 |
| markeloff | Hiko        | chrisJ      | Shara         | NiKo      |          361 |
| markeloff | Hiko        | NiKo        | chrisJ        | s1mple    |          361 |
| markeloff | Hiko        | fnx         | NiKo          | s1mple    |          361 |
| markeloff | Hiko        | fnx         | s1mple        | WorldEdit |          361 |
| markeloff | Hiko        | Shara       | NiKo          | s1mple    |          361 |
| markeloff | Hiko        | Shara       | s1mple        | WorldEdit |          361 |
| fnx       | chrisJ      | Shara       | s1mple        | SmithZz   |          361 |
| fnx       | Hiko        | chrisJ      | NiKo          | SmithZz   |          361 |
| fnx       | Hiko        | markeloff   | NiKo          | SmithZz   |          361 |
| fnx       | Hiko        | markeloff   | chrisJ        | NiKo      |          361 |
| fnx       | Hiko        | NiKo        | markeloff     | s1mple    |          361 |
| Shara     | chrisJ      | NiKo        | s1mple        | SmithZz   |          361 |
| Shara     | chrisJ      | fnx         | s1mple        | NiKo      |          361 |
| chrisJ    | markeloff   | fnx         | s1mple        | SmithZz   |          360 |
| chrisJ    | markeloff   | Shara       | s1mple        | SmithZz   |          360 |
| chrisJ    | Hiko        | NiKo        | Shara         | s1mple    |          360 |
| NiKo      | markeloff   | fnx         | s1mple        | SmithZz   |          360 |
| NiKo      | markeloff   | Shara       | s1mple        | SmithZz   |          360 |
| markeloff | Shara       | NiKo        | s1mple        | SmithZz   |          360 |
| markeloff | Shara       | fnx         | s1mple        | NiKo      |          360 |
| Shara     | markeloff   | fnx         | chrisJ        | SmithZz   |          360 |
| chrisJ    | Hiko        | fnx         | markeloff     | s1mple    |          359 |
| chrisJ    | Hiko        | Shara       | markeloff     | s1mple    |          359 |
| NiKo      | Hiko        | markeloff   | chrisJ        | SmithZz   |          359 |
| NiKo      | Hiko        | fnx         | markeloff     | s1mple    |          359 |
| NiKo      | Hiko        | Shara       | markeloff     | s1mple    |          359 |
| markeloff | Hiko        | NiKo        | Shara         | s1mple    |          359 |
| fnx       | Hiko        | chrisJ      | Shara         | NiKo      |          359 |
| fnx       | Hiko        | markeloff   | Shara         | NiKo      |          359 |
| fnx       | Hiko        | NiKo        | chrisJ        | s1mple    |          359 |
| fnx       | Hiko        | Shara       | NiKo          | s1mple    |          359 |
| fnx       | Hiko        | Shara       | s1mple        | WorldEdit |          359 |
| Shara     | Hiko        | NiKo        | s1mple        | WorldEdit |          359 |
| fnx       | Shara       | NiKo        | s1mple        | SmithZz   |          358 |
| fnx       | Hiko        | chrisJ      | markeloff     | SmithZz   |          358 |
| Shara     | Hiko        | chrisJ      | markeloff     | NiKo      |          358 |
| chrisJ    | Hiko        | markeloff   | Shara         | SmithZz   |          357 |
| NiKo      | Hiko        | chrisJ      | Shara         | SmithZz   |          357 |
| NiKo      | Hiko        | markeloff   | Shara         | SmithZz   |          357 |
| NiKo      | Hiko        | fnx         | chrisJ        | s1mple    |          357 |
| NiKo      | Hiko        | Shara       | chrisJ        | s1mple    |          357 |
| fnx       | markeloff   | Shara       | s1mple        | SmithZz   |          357 |
| fnx       | Hiko        | NiKo        | Shara         | s1mple    |          357 |
| Shara     | markeloff   | NiKo        | s1mple        | SmithZz   |          357 |
| Shara     | markeloff   | fnx         | s1mple        | NiKo      |          357 |
| chrisJ    | Shara       | fnx         | s1mple        | SmithZz   |          356 |
| chrisJ    | Hiko        | markeloff   | s1mple        | NiKo      |          356 |
| NiKo      | Shara       | fnx         | s1mple        | SmithZz   |          356 |
| markeloff | Hiko        | chrisJ      | Shara         | SmithZz   |          356 |
| markeloff | Hiko        | fnx         | chrisJ        | s1mple    |          356 |
| markeloff | Hiko        | Shara       | chrisJ        | s1mple    |          356 |
| fnx       | Hiko        | markeloff   | chrisJ        | SmithZz   |          356 |
| fnx       | Hiko        | Shara       | markeloff     | s1mple    |          356 |
| Shara     | chrisJ      | fnx         | s1mple        | SmithZz   |          356 |
| Shara     | Hiko        | chrisJ      | NiKo          | SmithZz   |          356 |
| Shara     | Hiko        | markeloff   | NiKo          | SmithZz   |          356 |
| Shara     | Hiko        | markeloff   | chrisJ        | NiKo      |          356 |
| Shara     | Hiko        | NiKo        | markeloff     | s1mple    |          356 |
| chrisJ    | Hiko        | fnx         | Shara         | s1mple    |          355 |
| NiKo      | Hiko        | fnx         | Shara         | s1mple    |          355 |
| markeloff | Shara       | fnx         | s1mple        | SmithZz   |          355 |
| markeloff | Hiko        | chrisJ      | s1mple        | NiKo      |          355 |
| markeloff | Hiko        | fnx         | Shara         | s1mple    |          354 |
| fnx       | Hiko        | chrisJ      | Shara         | SmithZz   |          354 |
| fnx       | Hiko        | markeloff   | Shara         | SmithZz   |          354 |
| fnx       | Hiko        | Shara       | chrisJ        | s1mple    |          354 |
| Shara     | Hiko        | NiKo        | chrisJ        | s1mple    |          354 |
| Shara     | Hiko        | fnx         | NiKo          | s1mple    |          354 |
| Shara     | Hiko        | fnx         | s1mple        | WorldEdit |          354 |
| fnx       | Hiko        | chrisJ      | s1mple        | NiKo      |          353 |
| fnx       | Hiko        | markeloff   | s1mple        | NiKo      |          353 |
| Shara     | Hiko        | chrisJ      | markeloff     | SmithZz   |          353 |
| chrisJ    | Hiko        | NiKo        | markeloff     | SmithZz   |          352 |
| chrisJ    | Hiko        | fnx         | markeloff     | NiKo      |          352 |
| chrisJ    | Hiko        | Shara       | markeloff     | NiKo      |          352 |
| Shara     | markeloff   | fnx         | s1mple        | SmithZz   |          352 |
| chrisJ    | Hiko        | markeloff   | s1mple        | SmithZz   |          351 |
| NiKo      | Hiko        | chrisJ      | s1mple        | SmithZz   |          351 |
| NiKo      | Hiko        | markeloff   | s1mple        | SmithZz   |          351 |
| Shara     | Hiko        | markeloff   | chrisJ        | SmithZz   |          351 |
| Shara     | Hiko        | fnx         | markeloff     | s1mple    |          351 |
| chrisJ    | Hiko        | fnx         | NiKo          | SmithZz   |          350 |
| chrisJ    | Hiko        | Shara       | NiKo          | SmithZz   |          350 |
| markeloff | Hiko        | chrisJ      | s1mple        | SmithZz   |          350 |
| markeloff | Hiko        | NiKo        | chrisJ        | SmithZz   |          349 |
| markeloff | Hiko        | fnx         | NiKo          | SmithZz   |          349 |
| markeloff | Hiko        | fnx         | chrisJ        | NiKo      |          349 |
| markeloff | Hiko        | Shara       | NiKo          | SmithZz   |          349 |
| markeloff | Hiko        | Shara       | chrisJ        | NiKo      |          349 |
| fnx       | Hiko        | NiKo        | markeloff     | SmithZz   |          349 |
| fnx       | Hiko        | Shara       | markeloff     | NiKo      |          349 |
| Shara     | Hiko        | fnx         | chrisJ        | s1mple    |          349 |
| chrisJ    | Hiko        | NiKo        | Shara         | SmithZz   |          348 |
| chrisJ    | Hiko        | fnx         | Shara         | NiKo      |          348 |
| fnx       | Hiko        | chrisJ      | s1mple        | SmithZz   |          348 |
| fnx       | Hiko        | markeloff   | s1mple        | SmithZz   |          348 |
| Shara     | Hiko        | chrisJ      | s1mple        | NiKo      |          348 |
| Shara     | Hiko        | markeloff   | s1mple        | NiKo      |          348 |
| chrisJ    | Hiko        | fnx         | markeloff     | SmithZz   |          347 |
| chrisJ    | Hiko        | Shara       | markeloff     | SmithZz   |          347 |
| NiKo      | Hiko        | fnx         | markeloff     | SmithZz   |          347 |
| NiKo      | Hiko        | Shara       | markeloff     | SmithZz   |          347 |
| markeloff | Hiko        | NiKo        | Shara         | SmithZz   |          347 |
| markeloff | Hiko        | fnx         | Shara         | NiKo      |          347 |
| fnx       | Hiko        | NiKo        | chrisJ        | SmithZz   |          347 |
| fnx       | Hiko        | Shara       | NiKo          | SmithZz   |          347 |
| fnx       | Hiko        | Shara       | chrisJ        | NiKo      |          347 |
| NiKo      | Hiko        | fnx         | chrisJ        | SmithZz   |          345 |
| NiKo      | Hiko        | Shara       | chrisJ        | SmithZz   |          345 |
| fnx       | Hiko        | NiKo        | Shara         | SmithZz   |          345 |
| markeloff | Hiko        | fnx         | chrisJ        | SmithZz   |          344 |
| markeloff | Hiko        | Shara       | chrisJ        | SmithZz   |          344 |
| fnx       | Hiko        | Shara       | markeloff     | SmithZz   |          344 |
| Shara     | Hiko        | NiKo        | markeloff     | SmithZz   |          344 |
| Shara     | Hiko        | fnx         | markeloff     | NiKo      |          344 |
| chrisJ    | Hiko        | fnx         | Shara         | SmithZz   |          343 |
| NiKo      | Hiko        | fnx         | Shara         | SmithZz   |          343 |
| Shara     | Hiko        | chrisJ      | s1mple        | SmithZz   |          343 |
| Shara     | Hiko        | markeloff   | s1mple        | SmithZz   |          343 |
| chrisJ    | Hiko        | NiKo        | s1mple        | SmithZz   |          342 |
| chrisJ    | Hiko        | fnx         | s1mple        | NiKo      |          342 |
| chrisJ    | Hiko        | Shara       | s1mple        | NiKo      |          342 |
| markeloff | Hiko        | fnx         | Shara         | SmithZz   |          342 |
| fnx       | Hiko        | Shara       | chrisJ        | SmithZz   |          342 |
| Shara     | Hiko        | NiKo        | chrisJ        | SmithZz   |          342 |
| Shara     | Hiko        | fnx         | NiKo          | SmithZz   |          342 |
| Shara     | Hiko        | fnx         | chrisJ        | NiKo      |          342 |
| markeloff | Hiko        | NiKo        | s1mple        | SmithZz   |          341 |
| markeloff | Hiko        | fnx         | s1mple        | NiKo      |          341 |
| markeloff | Hiko        | Shara       | s1mple        | NiKo      |          341 |
| fnx       | Hiko        | NiKo        | s1mple        | SmithZz   |          339 |
| fnx       | Hiko        | Shara       | s1mple        | NiKo      |          339 |
| Shara     | Hiko        | fnx         | markeloff     | SmithZz   |          339 |
| chrisJ    | Hiko        | fnx         | s1mple        | SmithZz   |          337 |
| chrisJ    | Hiko        | Shara       | s1mple        | SmithZz   |          337 |
| NiKo      | Hiko        | fnx         | s1mple        | SmithZz   |          337 |
| NiKo      | Hiko        | Shara       | s1mple        | SmithZz   |          337 |
| Shara     | Hiko        | fnx         | chrisJ        | SmithZz   |          337 |
| markeloff | Hiko        | fnx         | s1mple        | SmithZz   |          336 |
| markeloff | Hiko        | Shara       | s1mple        | SmithZz   |          336 |
| fnx       | Hiko        | Shara       | s1mple        | SmithZz   |          334 |
| Shara     | Hiko        | NiKo        | s1mple        | SmithZz   |          334 |
| Shara     | Hiko        | fnx         | s1mple        | NiKo      |          334 |
| Shara     | Hiko        | fnx         | s1mple        | SmithZz   |          329 |
+-----------+-------------+-------------+---------------+-----------+--------------+

Daily Commando: 
+----------------+--------+----------------+
| Name           | Points | Kills - Deaths |
+----------------+--------+----------------+
| chrisJ         |     72 |             11 |
| NiKo           |     72 |             10 |
| markeloff      |     71 |             10 |
| fnx            |     69 |             20 |
| Shara          |     64 |              7 |
| wayLander      |     58 |             14 |
| s1mple         |     57 |             10 |
| SmithZz        |     54 |             15 |
| WorldEdit      |     49 |              3 |
| Ex6TenZ        |     48 |             14 |
| EliGE          |     48 |              8 |
| aizy           |     47 |             14 |
| coldzera       |     46 |             12 |
| adreN          |     44 |              7 |
| Hiko           |     44 |              6 |
| FalleN         |     42 |             12 |
| GuardiaN       |     41 |             11 |
| shox           |     39 |             10 |
| Happy          |     37 |              6 |
| apEX           |     37 |              5 |
| device         |     36 |              8 |
| Edward         |     35 |              9 |
| B1ad3          |     33 |             -5 |
| jkaem          |     32 |              7 |
| seized         |     31 |              7 |
| cajunb         |     31 |              6 |
| KRIMZ          |     30 |              1 |
| bondik         |     30 |             -6 |
| rain           |     28 |              5 |
| dupreeh        |     27 |              5 |
| Spiidi         |     27 |             -8 |
| nex            |     27 |             -9 |
| Xyp9x          |     26 |              5 |
| JW             |     26 |             -2 |
| fox            |     25 |              5 |
| flamie         |     24 |              4 |
| hazed          |     24 |              2 |
| flusha         |     24 |             -1 |
| dennis         |     22 |             -6 |
| denis          |     22 |            -14 |
| RpK            |     21 |              5 |
| Zeus           |     20 |              3 |
| hooch          |     19 |             -1 |
| NBK            |     19 |             -1 |
| Dosia          |     18 |             -1 |
| Maikelele      |     16 |              3 |
| AdreN          |     16 |             -2 |
| karrigan       |     13 |             -1 |
| ScreaM         |     13 |             -1 |
| arya           |     12 |             -1 |
| mou            |     11 |             -4 |
| olofmeister    |      9 |            -10 |
| TACO           |      8 |             -2 |
| Skadoodle      |      8 |             -4 |
| DEVIL          |      8 |             -6 |
| jdm64          |      7 |             -5 |
| TaZ            |      7 |             -5 |
| DAVEY          |      7 |             -5 |
| Xizt           |      7 |             -6 |
| byali          |      6 |             -5 |
| friberg        |      6 |             -6 |
| fer            |      5 |             -4 |
| reltuC         |      5 |             -5 |
| f0rest         |      4 |             -7 |
| pashaBiceps    |      3 |             -6 |
| tarik          |      3 |             -8 |
| n0thing        |      2 |             -8 |
| nitr0          |      2 |            -13 |
| shroud         |      1 |             -8 |
| ProfessorChaos |      0 |             -8 |
| Snax           |      0 |             -9 |
| kennyS         |      0 |            -10 |
| NEO            |     -1 |             -9 |
| GeTRiGhT       |     -1 |             -9 |
| FugLy          |     -1 |             -9 |
| Stewie2K       |     -1 |            -10 |
| jasonR         |     -2 |             -9 |
| THREAT         |     -5 |            -11 |
| abE            |     -7 |            -12 |
| freakazoid     |    -10 |            -14 |
+----------------+--------+----------------+

Commando Total Average: 
+----------------+-------------+---------------------+-------------+
| Name           | Points/Maps | Kills - Deaths/Maps | Maps Played |
+----------------+-------------+---------------------+-------------+
| Shara          |       51.00 |                5.50 |           2 |
| coldzera       |       44.56 |                9.22 |           9 |
| bondik         |       44.00 |                4.00 |           2 |
| markeloff      |       39.50 |                2.00 |           2 |
| NiKo           |       37.50 |                4.17 |           6 |
| s1mple         |       36.43 |                4.43 |           7 |
| Edward         |       33.25 |                6.00 |           8 |
| FalleN         |       32.11 |                5.33 |           9 |
| WorldEdit      |       31.50 |               -0.50 |           2 |
| fnx            |       29.89 |                4.00 |           9 |
| flamie         |       29.25 |                4.12 |           8 |
| adreN          |       27.67 |                3.17 |           6 |
| device         |       27.33 |                4.00 |           6 |
| chrisJ         |       25.80 |                1.40 |           5 |
| B1ad3          |       25.50 |               -4.50 |           2 |
| tarik          |       25.38 |                2.12 |           8 |
| jdm64          |       25.14 |                2.71 |           7 |
| dupreeh        |       24.83 |                3.00 |           6 |
| Happy          |       24.50 |                2.00 |           2 |
| cajunb         |       23.67 |                2.67 |           6 |
| GeTRiGhT       |       23.62 |                1.00 |           8 |
| Hiko           |       23.43 |                1.00 |           7 |
| dennis         |       23.17 |                1.67 |           6 |
| flusha         |       22.00 |                2.00 |           6 |
| byali          |       21.50 |                1.62 |           8 |
| fer            |       21.11 |                0.22 |           9 |
| f0rest         |       21.00 |                1.00 |           7 |
| seized         |       20.88 |                1.50 |           8 |
| KRIMZ          |       20.50 |                1.33 |           6 |
| JW             |       20.33 |                0.67 |           6 |
| Xyp9x          |       20.17 |                1.83 |           6 |
| AdreN          |       19.60 |                0.00 |           5 |
| apEX           |       19.50 |               -0.50 |           2 |
| Spiidi         |       19.40 |               -1.60 |           5 |
| EliGE          |       18.83 |               -1.50 |           6 |
| aizy           |       18.75 |                1.00 |           4 |
| Snax           |       18.75 |                0.62 |           8 |
| hazed          |       18.57 |                0.14 |           7 |
| TACO           |       18.56 |               -0.44 |           9 |
| rain           |       18.20 |               -1.40 |           5 |
| shox           |       18.00 |                1.20 |           5 |
| NEO            |       17.88 |                0.50 |           8 |
| olofmeister    |       17.83 |                0.00 |           6 |
| wayLander      |       17.60 |               -1.40 |           5 |
| hooch          |       17.40 |               -1.20 |           5 |
| TaZ            |       17.00 |                0.38 |           8 |
| denis          |       16.60 |               -3.80 |           5 |
| shroud         |       16.33 |               -3.00 |           3 |
| Dosia          |       16.00 |               -2.00 |           5 |
| kennyS         |       16.00 |               -2.67 |           3 |
| mou            |       15.00 |               -2.20 |           5 |
| pashaBiceps    |       14.88 |               -1.62 |           8 |
| DAVEY          |       14.50 |               -1.00 |           2 |
| Zeus           |       14.25 |               -1.00 |           8 |
| fox            |       14.25 |               -1.00 |           4 |
| RpK            |       14.00 |               -0.60 |           5 |
| reltuC         |       13.86 |               -1.57 |           7 |
| Xizt           |       13.86 |               -3.14 |           7 |
| ScreaM         |       13.60 |               -1.20 |           5 |
| friberg        |       13.43 |               -2.43 |           7 |
| nitr0          |       12.83 |               -4.67 |           6 |
| GuardiaN       |       12.50 |               -1.75 |           8 |
| SmithZz        |       12.40 |               -2.20 |           5 |
| nex            |       11.60 |               -6.20 |           5 |
| karrigan       |       11.00 |               -3.00 |           6 |
| NBK            |       10.00 |               -5.00 |           2 |
| jkaem          |        9.75 |               -4.00 |           4 |
| DEVIL          |        9.50 |               -4.50 |           2 |
| Ex6TenZ        |        9.00 |               -3.00 |           5 |
| Skadoodle      |        8.67 |               -6.67 |           3 |
| THREAT         |        7.86 |               -5.43 |           7 |
| Maikelele      |        7.20 |               -5.60 |           5 |
| FugLy          |        6.14 |               -6.00 |           7 |
| n0thing        |        5.50 |               -6.50 |           2 |
| arya           |        5.00 |               -5.50 |           2 |
| Stewie2K       |        1.50 |               -8.50 |           2 |
| ProfessorChaos |        1.00 |               -8.00 |           2 |
| freakazoid     |        0.00 |               -9.00 |           2 |
| jasonR         |       -5.00 |              -11.00 |           2 |
| abE            |       -5.00 |              -11.50 |           2 |
+----------------+-------------+---------------------+-------------+

Daily Clutch King: 
+----------------+--------+--------------+
| Name           | Points | Clutch Kills |
+----------------+--------+--------------+
| NiKo           |    102 |           10 |
| chrisJ         |     89 |            7 |
| markeloff      |     85 |            6 |
| Shara          |     81 |            6 |
| Hiko           |     62 |            6 |
| WorldEdit      |     62 |            4 |
| wayLander      |     60 |            4 |
| B1ad3          |     57 |            6 |
| fnx            |     57 |            2 |
| EliGE          |     52 |            3 |
| s1mple         |     51 |            1 |
| KRIMZ          |     49 |            5 |
| coldzera       |     46 |            3 |
| adreN          |     45 |            2 |
| Happy          |     43 |            3 |
| SmithZz        |     43 |            1 |
| Spiidi         |     39 |            3 |
| nex            |     35 |            2 |
| dennis         |     34 |            3 |
| bondik         |     34 |            1 |
| FalleN         |     34 |            1 |
| Ex6TenZ        |     34 |            0 |
| aizy           |     33 |            0 |
| flusha         |     32 |            2 |
| device         |     32 |            1 |
| apEX           |     32 |            0 |
| NBK            |     31 |            3 |
| denis          |     30 |            2 |
| JW             |     30 |            1 |
| Edward         |     30 |            1 |
| GuardiaN       |     30 |            0 |
| Xyp9x          |     29 |            2 |
| cajunb         |     29 |            1 |
| shox           |     29 |            0 |
| Skadoodle      |     28 |            5 |
| Dosia          |     26 |            2 |
| hazed          |     26 |            1 |
| dupreeh        |     26 |            1 |
| jkaem          |     25 |            0 |
| AdreN          |     24 |            2 |
| seized         |     24 |            0 |
| rain           |     23 |            0 |
| arya           |     20 |            2 |
| flamie         |     20 |            0 |
| fox            |     20 |            0 |
| TaZ            |     19 |            3 |
| hooch          |     19 |            0 |
| olofmeister    |     17 |            2 |
| Zeus           |     17 |            0 |
| RpK            |     16 |            0 |
| Xizt           |     15 |            2 |
| n0thing        |     14 |            3 |
| nitr0          |     14 |            3 |
| Maikelele      |     13 |            0 |
| karrigan       |     13 |            0 |
| ScreaM         |     13 |            0 |
| ProfessorChaos |     12 |            3 |
| f0rest         |     12 |            2 |
| tarik          |     11 |            2 |
| mou            |     11 |            0 |
| shroud         |      9 |            2 |
| kennyS         |      8 |            2 |
| TACO           |      8 |            0 |
| DEVIL          |      8 |            0 |
| jdm64          |      7 |            0 |
| DAVEY          |      7 |            0 |
| friberg        |      6 |            0 |
| byali          |      6 |            0 |
| fer            |      5 |            0 |
| reltuC         |      5 |            0 |
| Snax           |      4 |            1 |
| Stewie2K       |      3 |            1 |
| NEO            |      3 |            1 |
| GeTRiGhT       |      3 |            1 |
| FugLy          |      3 |            1 |
| pashaBiceps    |      3 |            0 |
| jasonR         |      2 |            1 |
| THREAT         |     -1 |            1 |
| abE            |     -7 |            0 |
| freakazoid     |    -10 |            0 |
+----------------+--------+--------------+

Clutch King Total Average: 
+----------------+-------------+-------------------+-------------+
| Name           | Points/Maps | Clutch Kills/Maps | Maps Played |
+----------------+-------------+-------------------+-------------+
| Shara          |       59.50 |              3.50 |           2 |
| markeloff      |       53.50 |              4.00 |           2 |
| NiKo           |       48.67 |              3.83 |           6 |
| coldzera       |       44.67 |              2.33 |           9 |
| bondik         |       44.00 |              1.00 |           2 |
| WorldEdit      |       41.50 |              2.50 |           2 |
| B1ad3          |       39.50 |              3.50 |           2 |
| FalleN         |       35.67 |              2.22 |           9 |
| Edward         |       35.25 |              2.00 |           8 |
| Hiko           |       35.00 |              3.14 |           7 |
| s1mple         |       34.86 |              0.71 |           7 |
| chrisJ         |       34.00 |              2.40 |           5 |
| adreN          |       33.83 |              2.33 |           6 |
| fnx            |       32.56 |              1.67 |           9 |
| kennyS         |       32.00 |              4.00 |           3 |
| GeTRiGhT       |       31.62 |              2.25 |           8 |
| Happy          |       30.50 |              2.00 |           2 |
| flamie         |       30.12 |              1.25 |           8 |
| AdreN          |       30.00 |              2.60 |           5 |
| device         |       30.00 |              1.67 |           6 |
| JW             |       29.67 |              2.50 |           6 |
| flusha         |       28.67 |              2.17 |           6 |
| KRIMZ          |       28.50 |              2.33 |           6 |
| tarik          |       28.25 |              1.25 |           8 |
| jdm64          |       28.14 |              1.43 |           7 |
| f0rest         |       28.00 |              2.00 |           7 |
| Xyp9x          |       27.67 |              2.33 |           6 |
| hooch          |       27.00 |              2.40 |           5 |
| seized         |       26.88 |              1.88 |           8 |
| shox           |       26.40 |              2.40 |           5 |
| byali          |       25.88 |              1.50 |           8 |
| dupreeh        |       25.83 |              1.00 |           6 |
| NEO            |       25.38 |              2.00 |           8 |
| Spiidi         |       25.00 |              1.40 |           5 |
| dennis         |       24.83 |              0.83 |           6 |
| TaZ            |       24.62 |              2.00 |           8 |
| DAVEY          |       24.50 |              2.50 |           2 |
| Dosia          |       24.00 |              2.00 |           5 |
| denis          |       23.80 |              1.80 |           5 |
| cajunb         |       23.67 |              0.67 |           6 |
| Snax           |       23.62 |              1.38 |           8 |
| fer            |       23.56 |              0.67 |           9 |
| wayLander      |       23.20 |              1.40 |           5 |
| olofmeister    |       23.17 |              1.33 |           6 |
| TACO           |       23.00 |              1.11 |           9 |
| reltuC         |       22.43 |              2.14 |           7 |
| hazed          |       22.43 |              1.00 |           7 |
| Skadoodle      |       22.00 |              3.33 |           3 |
| shroud         |       21.67 |              1.33 |           3 |
| EliGE          |       21.50 |              0.67 |           6 |
| apEX           |       21.50 |              0.50 |           2 |
| rain           |       21.40 |              0.80 |           5 |
| aizy           |       20.75 |              0.75 |           4 |
| fox            |       20.25 |              1.50 |           4 |
| pashaBiceps    |       19.88 |              1.25 |           8 |
| mou            |       19.80 |              1.20 |           5 |
| friberg        |       19.71 |              1.57 |           7 |
| Xizt           |       19.57 |              1.43 |           7 |
| ScreaM         |       19.20 |              1.40 |           5 |
| nex            |       18.80 |              1.80 |           5 |
| nitr0          |       18.17 |              1.33 |           6 |
| NBK            |       18.00 |              2.00 |           2 |
| jkaem          |       17.75 |              2.00 |           4 |
| SmithZz        |       17.20 |              1.20 |           5 |
| Zeus           |       16.75 |              0.62 |           8 |
| RpK            |       16.40 |              0.60 |           5 |
| GuardiaN       |       15.50 |              0.75 |           8 |
| karrigan       |       15.00 |              1.00 |           6 |
| DEVIL          |       13.50 |              1.00 |           2 |
| THREAT         |       12.43 |              1.14 |           7 |
| Ex6TenZ        |       12.20 |              0.80 |           5 |
| n0thing        |       11.50 |              1.50 |           2 |
| arya           |       11.00 |              1.50 |           2 |
| FugLy          |        9.57 |              0.86 |           7 |
| Maikelele      |        8.80 |              0.40 |           5 |
| Stewie2K       |        7.50 |              1.50 |           2 |
| ProfessorChaos |        7.00 |              1.50 |           2 |
| freakazoid     |        0.00 |              0.00 |           2 |
| jasonR         |       -3.00 |              0.50 |           2 |
| abE            |       -5.00 |              0.00 |           2 |
+----------------+-------------+-------------------+-------------+

Daily Eco Warrior: 
+----------------+--------+--------------+
| Name           | Points | Pistol Kills |
+----------------+--------+--------------+
| chrisJ         |     77 |            8 |
| markeloff      |     77 |            8 |
| NiKo           |     68 |            3 |
| fnx            |     63 |            7 |
| Shara          |     63 |            3 |
| s1mple         |     57 |            5 |
| WorldEdit      |     52 |            3 |
| wayLander      |     50 |            3 |
| adreN          |     49 |            6 |
| Hiko           |     48 |            5 |
| SmithZz        |     47 |            4 |
| coldzera       |     44 |            5 |
| Ex6TenZ        |     44 |            5 |
| Happy          |     43 |            6 |
| hazed          |     42 |           10 |
| apEX           |     42 |            5 |
| EliGE          |     42 |            1 |
| nex            |     41 |            7 |
| aizy           |     41 |            4 |
| FalleN         |     40 |            5 |
| B1ad3          |     39 |            3 |
| KRIMZ          |     37 |            4 |
| bondik         |     36 |            3 |
| GuardiaN       |     36 |            3 |
| flusha         |     34 |            5 |
| Edward         |     34 |            4 |
| device         |     34 |            3 |
| Spiidi         |     33 |            3 |
| shox           |     33 |            2 |
| dennis         |     32 |            5 |
| JW             |     32 |            3 |
| rain           |     31 |            4 |
| dupreeh        |     30 |            4 |
| jkaem          |     29 |            2 |
| cajunb         |     27 |            1 |
| arya           |     26 |            7 |
| seized         |     26 |            1 |
| hooch          |     25 |            3 |
| Xyp9x          |     25 |            2 |
| denis          |     24 |            1 |
| NBK            |     23 |            2 |
| Skadoodle      |     22 |            7 |
| Dosia          |     22 |            2 |
| flamie         |     22 |            1 |
| fox            |     22 |            1 |
| mou            |     21 |            5 |
| ScreaM         |     21 |            4 |
| Zeus           |     21 |            2 |
| friberg        |     20 |            7 |
| byali          |     18 |            6 |
| RpK            |     18 |            1 |
| AdreN          |     16 |            0 |
| Maikelele      |     15 |            1 |
| karrigan       |     15 |            1 |
| TACO           |     14 |            3 |
| reltuC         |     13 |            4 |
| jdm64          |     13 |            3 |
| TaZ            |     13 |            3 |
| DAVEY          |     13 |            3 |
| olofmeister    |     13 |            2 |
| Xizt           |     11 |            2 |
| ProfessorChaos |     10 |            5 |
| nitr0          |     10 |            4 |
| f0rest         |     10 |            3 |
| DEVIL          |     10 |            1 |
| shroud         |      9 |            4 |
| n0thing        |      8 |            3 |
| Stewie2K       |      7 |            4 |
| pashaBiceps    |      7 |            2 |
| fer            |      7 |            1 |
| Snax           |      6 |            3 |
| kennyS         |      6 |            3 |
| NEO            |      3 |            2 |
| tarik          |      3 |            0 |
| THREAT         |      1 |            3 |
| GeTRiGhT       |      1 |            1 |
| FugLy          |      1 |            1 |
| jasonR         |      0 |            1 |
| abE            |     -1 |            3 |
| freakazoid     |     -8 |            1 |
+----------------+--------+--------------+

Eco Warrior Total Average: 
+----------------+-------------+-------------------+-------------+
| Name           | Points/Maps | Pistol Kills/Maps | Maps Played |
+----------------+-------------+-------------------+-------------+
| Shara          |       55.50 |              5.00 |           2 |
| markeloff      |       47.50 |              5.00 |           2 |
| NiKo           |       47.00 |              6.83 |           6 |
| bondik         |       47.00 |              3.50 |           2 |
| coldzera       |       43.33 |              4.00 |           9 |
| s1mple         |       40.57 |              4.29 |           7 |
| WorldEdit      |       39.50 |              4.00 |           2 |
| Happy          |       34.50 |              6.00 |           2 |
| chrisJ         |       34.00 |              4.80 |           5 |
| Edward         |       34.00 |              3.38 |           8 |
| FalleN         |       33.22 |              3.22 |           9 |
| fnx            |       32.56 |              3.33 |           9 |
| tarik          |       31.25 |              4.00 |           8 |
| device         |       31.00 |              3.83 |           6 |
| flamie         |       30.62 |              2.75 |           8 |
| adreN          |       30.50 |              3.00 |           6 |
| hazed          |       29.29 |              5.43 |           7 |
| AdreN          |       29.20 |              4.80 |           5 |
| dennis         |       29.17 |              3.83 |           6 |
| dupreeh        |       28.83 |              3.50 |           6 |
| rain           |       28.60 |              5.20 |           5 |
| apEX           |       28.50 |              4.50 |           2 |
| B1ad3          |       28.50 |              1.50 |           2 |
| GeTRiGhT       |       28.38 |              2.88 |           8 |
| flusha         |       28.33 |              4.17 |           6 |
| fer            |       28.00 |              3.56 |           9 |
| jdm64          |       27.86 |              2.71 |           7 |
| Hiko           |       27.86 |              2.71 |           7 |
| byali          |       27.62 |              3.88 |           8 |
| f0rest         |       27.14 |              3.57 |           7 |
| hooch          |       27.00 |              4.80 |           5 |
| cajunb         |       27.00 |              3.00 |           6 |
| seized         |       26.62 |              3.62 |           8 |
| EliGE          |       26.17 |              3.67 |           6 |
| TACO           |       26.11 |              3.78 |           9 |
| JW             |       25.67 |              3.00 |           6 |
| Snax           |       25.62 |              3.75 |           8 |
| KRIMZ          |       25.17 |              3.00 |           6 |
| denis          |       24.60 |              4.00 |           5 |
| shroud         |       24.33 |              4.00 |           3 |
| Xyp9x          |       24.33 |              3.00 |           6 |
| DAVEY          |       23.50 |              4.50 |           2 |
| Spiidi         |       23.40 |              2.00 |           5 |
| shox           |       23.20 |              3.20 |           5 |
| NEO            |       23.12 |              2.88 |           8 |
| olofmeister    |       22.83 |              2.50 |           6 |
| aizy           |       22.75 |              2.50 |           4 |
| mou            |       22.60 |              3.80 |           5 |
| kennyS         |       22.00 |              3.00 |           3 |
| wayLander      |       22.00 |              2.20 |           5 |
| TaZ            |       21.38 |              2.38 |           8 |
| RpK            |       20.80 |              3.40 |           5 |
| friberg        |       20.57 |              3.57 |           7 |
| ScreaM         |       20.00 |              3.20 |           5 |
| pashaBiceps    |       19.62 |              2.38 |           8 |
| nex            |       19.20 |              3.80 |           5 |
| Dosia          |       19.20 |              1.60 |           5 |
| nitr0          |       18.83 |              3.00 |           6 |
| Zeus           |       18.50 |              2.12 |           8 |
| reltuC         |       18.43 |              2.29 |           7 |
| Xizt           |       17.57 |              1.86 |           7 |
| GuardiaN       |       17.50 |              2.50 |           8 |
| Skadoodle      |       17.33 |              4.33 |           3 |
| fox            |       17.25 |              1.50 |           4 |
| NBK            |       17.00 |              3.50 |           2 |
| SmithZz        |       16.80 |              2.20 |           5 |
| DEVIL          |       15.50 |              3.00 |           2 |
| jkaem          |       15.25 |              2.75 |           4 |
| arya           |       15.00 |              5.00 |           2 |
| karrigan       |       14.67 |              1.83 |           6 |
| Ex6TenZ        |       13.80 |              2.40 |           5 |
| THREAT         |       13.29 |              2.71 |           7 |
| Maikelele      |       11.60 |              2.20 |           5 |
| FugLy          |       11.29 |              2.57 |           7 |
| n0thing        |       10.50 |              2.50 |           2 |
| ProfessorChaos |       10.00 |              4.50 |           2 |
| Stewie2K       |        7.50 |              3.00 |           2 |
| freakazoid     |        5.00 |              2.50 |           2 |
| abE            |        2.00 |              3.50 |           2 |
| jasonR         |       -2.00 |              1.50 |           2 |
+----------------+-------------+-------------------+-------------+

Daily Entry Fragger: 
+----------------+--------+---------------+
| Name           | Points | Opening Kills |
+----------------+--------+---------------+
| NiKo           |     78 |             8 |
| markeloff      |     75 |             7 |
| chrisJ         |     73 |             6 |
| Shara          |     71 |             7 |
| s1mple         |     65 |             9 |
| WorldEdit      |     60 |             7 |
| fnx            |     59 |             5 |
| wayLander      |     56 |             6 |
| adreN          |     49 |             6 |
| SmithZz        |     49 |             5 |
| EliGE          |     48 |             4 |
| Ex6TenZ        |     42 |             4 |
| Hiko           |     42 |             2 |
| bondik         |     40 |             5 |
| apEX           |     40 |             4 |
| B1ad3          |     39 |             3 |
| denis          |     38 |             8 |
| device         |     38 |             5 |
| coldzera       |     38 |             2 |
| JW             |     36 |             5 |
| FalleN         |     36 |             3 |
| nex            |     35 |             4 |
| Spiidi         |     35 |             4 |
| KRIMZ          |     35 |             3 |
| Happy          |     35 |             2 |
| dupreeh        |     34 |             6 |
| seized         |     34 |             5 |
| Edward         |     34 |             4 |
| GuardiaN       |     34 |             2 |
| NBK            |     33 |             7 |
| aizy           |     33 |             0 |
| flusha         |     32 |             4 |
| jkaem          |     31 |             3 |
| shox           |     31 |             1 |
| dennis         |     30 |             4 |
| rain           |     29 |             3 |
| cajunb         |     29 |             2 |
| fox            |     28 |             4 |
| hazed          |     26 |             2 |
| Xyp9x          |     25 |             2 |
| AdreN          |     22 |             3 |
| flamie         |     22 |             1 |
| arya           |     20 |             4 |
| Dosia          |     20 |             1 |
| ScreaM         |     19 |             3 |
| Zeus           |     19 |             1 |
| hooch          |     19 |             0 |
| RpK            |     18 |             1 |
| DAVEY          |     15 |             4 |
| olofmeister    |     15 |             3 |
| mou            |     15 |             2 |
| karrigan       |     15 |             1 |
| TACO           |     14 |             3 |
| DEVIL          |     14 |             3 |
| jdm64          |     13 |             3 |
| Maikelele      |     13 |             0 |
| byali          |     12 |             3 |
| Skadoodle      |     12 |             2 |
| TaZ            |     11 |             2 |
| friberg        |     10 |             2 |
| reltuC         |      9 |             2 |
| GeTRiGhT       |      7 |             4 |
| fer            |      7 |             1 |
| Xizt           |      7 |             0 |
| f0rest         |      6 |             1 |
| pashaBiceps    |      5 |             1 |
| n0thing        |      4 |             1 |
| nitr0          |      4 |             1 |
| FugLy          |      3 |             2 |
| tarik          |      3 |             0 |
| Snax           |      2 |             1 |
| ProfessorChaos |      2 |             1 |
| kennyS         |      2 |             1 |
| Stewie2K       |      1 |             1 |
| shroud         |      1 |             0 |
| NEO            |     -1 |             0 |
| jasonR         |     -2 |             0 |
| THREAT         |     -5 |             0 |
| abE            |     -7 |             0 |
| freakazoid     |     -8 |             1 |
+----------------+--------+---------------+

Entry Fragger Total Average: 
+----------------+-------------+--------------------+-------------+
| Name           | Points/Maps | Opening Kills/Maps | Maps Played |
+----------------+-------------+--------------------+-------------+
| Shara          |       56.50 |               5.50 |           2 |
| bondik         |       55.00 |               7.50 |           2 |
| markeloff      |       48.50 |               5.50 |           2 |
| s1mple         |       44.00 |               6.00 |           7 |
| NiKo           |       43.67 |               5.17 |           6 |
| WorldEdit      |       42.50 |               5.50 |           2 |
| coldzera       |       40.22 |               2.44 |           9 |
| FalleN         |       34.78 |               4.00 |           9 |
| Edward         |       32.25 |               2.50 |           8 |
| chrisJ         |       31.60 |               3.60 |           5 |
| adreN          |       31.50 |               3.50 |           6 |
| flamie         |       31.38 |               3.12 |           8 |
| GeTRiGhT       |       31.12 |               4.25 |           8 |
| dupreeh        |       30.83 |               4.50 |           6 |
| jdm64          |       30.43 |               4.00 |           7 |
| fnx            |       30.33 |               2.22 |           9 |
| fer            |       30.22 |               4.67 |           9 |
| device         |       30.00 |               3.33 |           6 |
| B1ad3          |       29.50 |               2.00 |           2 |
| tarik          |       29.25 |               3.00 |           8 |
| Happy          |       27.50 |               2.50 |           2 |
| JW             |       27.00 |               3.67 |           6 |
| EliGE          |       26.50 |               3.83 |           6 |
| apEX           |       26.50 |               3.50 |           2 |
| rain           |       26.20 |               4.00 |           5 |
| dennis         |       25.50 |               2.00 |           6 |
| f0rest         |       25.43 |               2.71 |           7 |
| AdreN          |       25.20 |               2.80 |           5 |
| Spiidi         |       25.00 |               2.80 |           5 |
| TACO           |       24.78 |               3.11 |           9 |
| cajunb         |       24.67 |               1.83 |           6 |
| seized         |       24.62 |               2.62 |           8 |
| Hiko           |       24.43 |               1.00 |           7 |
| byali          |       24.38 |               2.25 |           8 |
| flusha         |       24.33 |               2.17 |           6 |
| KRIMZ          |       23.83 |               2.33 |           6 |
| NEO            |       23.62 |               3.12 |           8 |
| hazed          |       23.57 |               2.57 |           7 |
| kennyS         |       23.33 |               3.67 |           3 |
| denis          |       23.00 |               3.20 |           5 |
| Snax           |       22.88 |               2.38 |           8 |
| wayLander      |       22.80 |               2.60 |           5 |
| olofmeister    |       22.50 |               2.33 |           6 |
| Xyp9x          |       22.33 |               2.00 |           6 |
| aizy           |       22.25 |               2.25 |           4 |
| hooch          |       21.40 |               2.00 |           5 |
| mou            |       21.00 |               3.00 |           5 |
| Dosia          |       20.80 |               2.40 |           5 |
| DAVEY          |       20.50 |               3.00 |           2 |
| pashaBiceps    |       19.88 |               2.50 |           8 |
| TaZ            |       19.88 |               1.62 |           8 |
| shox           |       19.60 |               1.40 |           5 |
| fox            |       19.25 |               2.50 |           4 |
| shroud         |       19.00 |               1.33 |           3 |
| SmithZz        |       18.80 |               3.20 |           5 |
| nitr0          |       18.50 |               2.83 |           6 |
| GuardiaN       |       18.25 |               2.88 |           8 |
| NBK            |       18.00 |               4.00 |           2 |
| ScreaM         |       18.00 |               2.20 |           5 |
| Xizt           |       17.57 |               1.86 |           7 |
| friberg        |       17.43 |               2.00 |           7 |
| RpK            |       17.20 |               1.60 |           5 |
| reltuC         |       17.00 |               1.57 |           7 |
| Zeus           |       16.75 |               1.25 |           8 |
| karrigan       |       15.00 |               2.00 |           6 |
| nex            |       14.80 |               1.60 |           5 |
| Skadoodle      |       14.00 |               2.67 |           3 |
| Ex6TenZ        |       13.40 |               2.20 |           5 |
| jkaem          |       13.25 |               1.75 |           4 |
| DEVIL          |       12.50 |               1.50 |           2 |
| arya           |       12.00 |               3.50 |           2 |
| Maikelele      |       10.00 |               1.40 |           5 |
| THREAT         |        9.29 |               0.71 |           7 |
| FugLy          |        8.71 |               1.29 |           7 |
| n0thing        |        7.50 |               1.00 |           2 |
| Stewie2K       |        6.50 |               2.50 |           2 |
| freakazoid     |        4.00 |               2.00 |           2 |
| ProfessorChaos |        4.00 |               1.50 |           2 |
| abE            |       -4.00 |               0.50 |           2 |
| jasonR         |       -5.00 |               0.00 |           2 |
+----------------+-------------+--------------------+-------------+

Daily Sniper: 
+----------------+--------+--------------+
| Name           | Points | Sniper Kills |
+----------------+--------+--------------+
| chrisJ         |    115 |           27 |
| WorldEdit      |    100 |           27 |
| s1mple         |     87 |           20 |
| NiKo           |     80 |            9 |
| SmithZz        |     75 |           18 |
| adreN          |     61 |           12 |
| Shara          |     61 |            2 |
| markeloff      |     61 |            0 |
| GuardiaN       |     58 |           14 |
| device         |     50 |           11 |
| FalleN         |     50 |           10 |
| fnx            |     49 |            0 |
| JW             |     48 |           11 |
| wayLander      |     44 |            0 |
| Ex6TenZ        |     40 |            3 |
| EliGE          |     40 |            0 |
| fox            |     38 |            9 |
| Hiko           |     38 |            0 |
| coldzera       |     36 |            1 |
| B1ad3          |     33 |            0 |
| aizy           |     33 |            0 |
| apEX           |     32 |            0 |
| KRIMZ          |     31 |            1 |
| Happy          |     31 |            0 |
| bondik         |     30 |            0 |
| cajunb         |     29 |            2 |
| shox           |     29 |            0 |
| nex            |     27 |            0 |
| Spiidi         |     27 |            0 |
| flusha         |     26 |            1 |
| Edward         |     26 |            0 |
| DAVEY          |     25 |            9 |
| jkaem          |     25 |            0 |
| dennis         |     24 |            1 |
| seized         |     24 |            0 |
| rain           |     23 |            0 |
| denis          |     22 |            0 |
| hazed          |     22 |            0 |
| dupreeh        |     22 |            0 |
| mou            |     21 |            5 |
| Xyp9x          |     21 |            0 |
| flamie         |     20 |            0 |
| hooch          |     19 |            0 |
| NBK            |     19 |            0 |
| arya           |     18 |            3 |
| Dosia          |     18 |            0 |
| Zeus           |     17 |            0 |
| AdreN          |     16 |            0 |
| RpK            |     16 |            0 |
| jdm64          |     15 |            4 |
| olofmeister    |     15 |            3 |
| Maikelele      |     15 |            1 |
| Skadoodle      |     14 |            3 |
| karrigan       |     13 |            0 |
| ScreaM         |     13 |            0 |
| f0rest         |     12 |            4 |
| kennyS         |     10 |            5 |
| TACO           |      8 |            0 |
| DEVIL          |      8 |            0 |
| TaZ            |      7 |            0 |
| Xizt           |      7 |            0 |
| friberg        |      6 |            0 |
| byali          |      6 |            0 |
| pashaBiceps    |      5 |            1 |
| fer            |      5 |            0 |
| reltuC         |      5 |            0 |
| nitr0          |      4 |            1 |
| tarik          |      3 |            0 |
| n0thing        |      2 |            0 |
| NEO            |      1 |            1 |
| shroud         |      1 |            0 |
| Snax           |      0 |            0 |
| ProfessorChaos |      0 |            0 |
| Stewie2K       |     -1 |            0 |
| GeTRiGhT       |     -1 |            0 |
| FugLy          |     -1 |            0 |
| jasonR         |     -2 |            0 |
| THREAT         |     -5 |            0 |
| abE            |     -7 |            0 |
| freakazoid     |    -10 |            0 |
+----------------+--------+--------------+

Sniper Total Average: 
+----------------+-------------+-------------------+-------------+
| Name           | Points/Maps | Sniper Kills/Maps | Maps Played |
+----------------+-------------+-------------------+-------------+
| WorldEdit      |       64.50 |             16.50 |           2 |
| s1mple         |       56.00 |             12.00 |           7 |
| FalleN         |       52.78 |             13.00 |           9 |
| jdm64          |       50.14 |             13.86 |           7 |
| chrisJ         |       48.80 |             12.20 |           5 |
| Shara          |       47.50 |              1.00 |           2 |
| coldzera       |       47.11 |              5.89 |           9 |
| device         |       44.33 |             10.50 |           6 |
| bondik         |       40.00 |              0.00 |           2 |
| markeloff      |       39.50 |              1.00 |           2 |
| kennyS         |       38.67 |             11.33 |           3 |
| NiKo           |       37.67 |              2.17 |           6 |
| adreN          |       36.50 |              6.00 |           6 |
| JW             |       34.00 |              7.17 |           6 |
| DAVEY          |       31.50 |              8.50 |           2 |
| Snax           |       29.38 |              5.62 |           8 |
| GuardiaN       |       29.25 |              8.38 |           8 |
| fox            |       29.25 |              7.50 |           4 |
| mou            |       28.20 |              6.60 |           5 |
| SmithZz        |       28.00 |              7.80 |           5 |
| tarik          |       27.75 |              2.25 |           8 |
| Edward         |       27.50 |              0.12 |           8 |
| f0rest         |       27.14 |              3.57 |           7 |
| NEO            |       26.88 |              4.75 |           8 |
| GeTRiGhT       |       26.38 |              1.88 |           8 |
| fnx            |       25.89 |              0.00 |           9 |
| flamie         |       25.62 |              0.25 |           8 |
| B1ad3          |       25.50 |              0.00 |           2 |
| cajunb         |       25.00 |              2.00 |           6 |
| olofmeister    |       24.83 |              3.50 |           6 |
| Happy          |       24.50 |              1.00 |           2 |
| Skadoodle      |       23.33 |              7.33 |           3 |
| dennis         |       22.83 |              0.67 |           6 |
| Hiko           |       22.43 |              0.00 |           7 |
| TACO           |       22.33 |              1.89 |           9 |
| dupreeh        |       22.17 |              0.17 |           6 |
| seized         |       21.88 |              1.25 |           8 |
| fer            |       20.89 |              0.00 |           9 |
| flusha         |       20.67 |              0.33 |           6 |
| byali          |       19.88 |              0.00 |           8 |
| AdreN          |       19.60 |              0.00 |           5 |
| KRIMZ          |       19.50 |              0.17 |           6 |
| apEX           |       19.50 |              0.00 |           2 |
| Spiidi         |       19.40 |              0.00 |           5 |
| aizy           |       19.25 |              0.75 |           4 |
| EliGE          |       18.83 |              0.00 |           6 |
| hazed          |       18.71 |              0.14 |           7 |
| wayLander      |       18.40 |              0.40 |           5 |
| Xyp9x          |       18.33 |              0.00 |           6 |
| hooch          |       18.20 |              0.40 |           5 |
| rain           |       18.20 |              0.00 |           5 |
| denis          |       17.80 |              0.60 |           5 |
| pashaBiceps    |       17.62 |              1.38 |           8 |
| shox           |       17.60 |              0.40 |           5 |
| Dosia          |       16.80 |              0.40 |           5 |
| TaZ            |       16.62 |              0.00 |           8 |
| shroud         |       16.33 |              0.00 |           3 |
| Xizt           |       15.86 |              1.00 |           7 |
| Zeus           |       15.00 |              0.38 |           8 |
| RpK            |       14.40 |              0.20 |           5 |
| reltuC         |       13.86 |              0.00 |           7 |
| ScreaM         |       13.60 |              0.00 |           5 |
| friberg        |       13.43 |              0.00 |           7 |
| nitr0          |       13.17 |              0.17 |           6 |
| karrigan       |       11.67 |              0.33 |           6 |
| nex            |       11.60 |              0.00 |           5 |
| Ex6TenZ        |       10.60 |              0.80 |           5 |
| arya           |       10.00 |              2.50 |           2 |
| NBK            |       10.00 |              0.00 |           2 |
| jkaem          |        9.75 |              0.00 |           4 |
| Maikelele      |        9.60 |              1.20 |           5 |
| DEVIL          |        9.50 |              0.00 |           2 |
| THREAT         |        7.86 |              0.00 |           7 |
| FugLy          |        6.43 |              0.14 |           7 |
| n0thing        |        5.50 |              0.00 |           2 |
| Stewie2K       |        1.50 |              0.00 |           2 |
| ProfessorChaos |        1.00 |              0.00 |           2 |
| freakazoid     |        0.00 |              0.00 |           2 |
| abE            |       -5.00 |              0.00 |           2 |
| jasonR         |       -5.00 |              0.00 |           2 |
+----------------+-------------+-------------------+-------------+